<svg width="194" height="240" viewBox="0 0 194 240" fill="none" xmlns="http://www.w3.org/2000/svg">
<mask id="mask0_1188_9566" style="mask-type:alpha" maskUnits="userSpaceOnUse" x="-785" y="-192" width="979" height="432">
<path d="M150.257 -106.023C115.411 -151.745 63.6256 -181.908 6.29108 -189.878C-51.0434 -197.849 -109.232 -182.974 -155.477 -148.525L-295.491 -43.709L-435.272 -148.525C-467.524 -172.558 -505.885 -187.275 -546.089 -191.039C-586.294 -194.803 -626.766 -187.467 -663.006 -169.847C-699.247 -152.227 -729.834 -125.013 -751.369 -91.2308C-772.903 -57.449 -784.541 -18.4236 -784.987 21.5069C-785.433 61.4375 -774.67 100.708 -753.895 134.952C-733.12 169.196 -703.148 197.071 -667.31 215.478C-631.472 233.886 -591.173 242.103 -550.894 239.218C-510.616 236.333 -471.936 222.457 -439.155 199.135L-438.145 198.367C-436.049 196.87 -433.952 195.296 -431.894 193.722L-295.374 91.5161L-159.126 193.722C-157.068 195.296 -154.972 196.87 -152.875 198.367L-151.865 199.135C-109.47 229.283 -57.5515 243.411 -5.52563 238.954C46.5002 234.498 95.1887 211.754 131.711 174.846C168.232 137.939 190.17 89.3111 193.544 37.7819C196.918 -13.7474 181.505 -64.7663 150.101 -106.023H150.257ZM-501.086 110.099L-502.328 111.059C-518.665 122.911 -538.013 130.039 -558.21 131.648C-578.407 133.256 -598.658 129.282 -616.703 120.168C-634.748 111.054 -649.876 97.1591 -660.397 80.0357C-670.918 62.9124 -676.418 43.2345 -676.283 23.1989C-676.149 3.16327 -670.385 -16.4411 -659.635 -33.4247C-648.884 -50.4084 -633.572 -64.1029 -615.406 -72.979C-597.24 -81.8551 -576.937 -85.5634 -556.764 -83.6898C-536.59 -81.8161 -517.34 -74.4343 -501.163 -62.3686L-385.883 23.9033L-501.086 110.099ZM84.0934 38.9925C81.4584 57.4911 74.0191 74.9984 62.5018 89.8068C50.9844 104.615 35.7819 116.219 18.3775 123.486C0.973083 130.753 -18.0387 133.435 -36.8038 131.27C-55.5689 129.105 -73.4463 122.168 -88.6919 111.135L-89.9347 110.176L-205.138 23.9802L-89.8569 -62.2917C-72.6054 -75.1659 -51.8791 -82.6895 -30.3013 -83.9105C-8.72353 -85.1315 12.7355 -79.9949 31.3597 -69.1508C49.9838 -58.3067 64.9357 -42.243 74.3228 -22.9924C83.7099 -3.74177 87.1104 17.8301 84.0934 38.9925Z" fill="#C4C4C4"/>
</mask>
<g mask="url(#mask0_1188_9566)">
<path d="M17.7656 182.945C59.4752 171.343 142.013 119.059 138.488 2.74219" stroke="#FCA326" stroke-width="127.772"/>
</g>
</svg>
